PWD C:/tex/geneatex/test
INPUT c:/texlive/2014/texmf.cnf
INPUT c:/texlive/2014/texmf-dist/web2c/texmf.cnf
INPUT c:/texlive/2014/texmf-var/web2c/pdftex/pdflatex.fmt
INPUT c:/tex/geneatex/test/genscrartcl.tex
OUTPUT genscrartcl.log
INPUT c:/texlive/2014/texmf-dist/tex/latex/snapshot/snapshot.sty
INPUT c:/texlive/2014/texmf-dist/tex/latex/snapshot/snapshot.sty
INPUT c:/texlive/2014/texmf-dist/tex/latex/koma-script/scrartcl.cls
INPUT c:/texlive/2014/texmf-dist/tex/latex/koma-script/scrartcl.cls
INPUT c:/texlive/2014/texmf-dist/tex/latex/koma-script/scrkbase.sty
INPUT c:/texlive/2014/texmf-dist/tex/latex/koma-script/scrkbase.sty
INPUT c:/texlive/2014/texmf-dist/tex/latex/koma-script/scrbase.sty
INPUT c:/texlive/2014/texmf-dist/tex/latex/koma-script/scrbase.sty
INPUT c:/texlive/2014/texmf-dist/tex/latex/graphics/keyval.sty
INPUT c:/texlive/2014/texmf-dist/tex/latex/graphics/keyval.sty
INPUT c:/texlive/2014/texmf-dist/tex/latex/koma-script/scrlfile.sty
INPUT c:/texlive/2014/texmf-dist/tex/latex/koma-script/scrlfile.sty
INPUT c:/texlive/2014/texmf-dist/tex/latex/koma-script/tocbasic.sty
INPUT c:/texlive/2014/texmf-dist/tex/latex/koma-script/tocbasic.sty
INPUT c:/texlive/2014/texmf-dist/tex/latex/koma-script/scrsize11pt.clo
INPUT c:/texlive/2014/texmf-dist/tex/latex/koma-script/scrsize11pt.clo
INPUT c:/texlive/2014/texmf-dist/fonts/map/fontname/texfonts.map
INPUT c:/texlive/2014/texmf-dist/fonts/tfm/public/cm/cmr10.tfm
INPUT c:/texlive/2014/texmf-dist/tex/latex/koma-script/typearea.sty
INPUT c:/texlive/2014/texmf-dist/tex/latex/koma-script/typearea.sty
INPUT genscrartcl.aux
INPUT genscrartcl.aux
OUTPUT genscrartcl.aux
OUTPUT genscrartcl.pdf
INPUT c:/texlive/2014/texmf-var/fonts/map/pdftex/updmap/pdftex.map
INPUT genscrartcl.aux
OUTPUT genscrartcl.dep
INPUT c:/texlive/2014/texmf-dist/fonts/type1/public/amsfonts/cm/cmr10.pfb
