PWD C:/tex/geneatex/test
INPUT c:/texlive/2014/texmf.cnf
INPUT c:/texlive/2014/texmf-dist/web2c/texmf.cnf
INPUT c:/texlive/2014/texmf-var/web2c/pdftex/pdflatex.fmt
INPUT c:/tex/geneatex/test/gensuftesi.tex
OUTPUT gensuftesi.log
INPUT c:/texlive/2014/texmf-dist/tex/latex/snapshot/snapshot.sty
INPUT c:/texlive/2014/texmf-dist/tex/latex/snapshot/snapshot.sty
INPUT c:/texlive/2014/texmf-dist/tex/latex/suftesi/suftesi.cls
INPUT c:/texlive/2014/texmf-dist/tex/latex/suftesi/suftesi.cls
INPUT c:/texlive/2014/texmf-dist/tex/latex/xkeyval/xkeyval.sty
INPUT c:/texlive/2014/texmf-dist/tex/latex/xkeyval/xkeyval.sty
INPUT c:/texlive/2014/texmf-dist/tex/generic/xkeyval/xkeyval.tex
INPUT c:/texlive/2014/texmf-dist/tex/generic/xkeyval/xkvutils.tex
INPUT c:/texlive/2014/texmf-dist/tex/generic/xkeyval/keyval.tex
INPUT c:/texlive/2014/texmf-dist/tex/latex/base/book.cls
INPUT c:/texlive/2014/texmf-dist/tex/latex/base/book.cls
INPUT c:/texlive/2014/texmf-dist/tex/latex/base/bk10.clo
INPUT c:/texlive/2014/texmf-dist/tex/latex/base/bk10.clo
INPUT c:/texlive/2014/texmf-dist/tex/latex/geometry/geometry.sty
INPUT c:/texlive/2014/texmf-dist/tex/latex/geometry/geometry.sty
INPUT c:/texlive/2014/texmf-dist/tex/generic/oberdiek/ifpdf.sty
INPUT c:/texlive/2014/texmf-dist/tex/generic/oberdiek/ifpdf.sty
INPUT c:/texlive/2014/texmf-dist/tex/generic/oberdiek/ifvtex.sty
INPUT c:/texlive/2014/texmf-dist/tex/generic/oberdiek/ifvtex.sty
INPUT c:/texlive/2014/texmf-dist/tex/generic/ifxetex/ifxetex.sty
INPUT c:/texlive/2014/texmf-dist/tex/generic/ifxetex/ifxetex.sty
INPUT c:/texlive/2014/texmf-dist/tex/latex/enumitem/enumitem.sty
INPUT c:/texlive/2014/texmf-dist/tex/latex/enumitem/enumitem.sty
INPUT c:/texlive/2014/texmf-dist/tex/latex/caption/caption.sty
INPUT c:/texlive/2014/texmf-dist/tex/latex/caption/caption.sty
INPUT c:/texlive/2014/texmf-dist/tex/latex/caption/caption3.sty
INPUT c:/texlive/2014/texmf-dist/tex/latex/caption/caption3.sty
INPUT c:/texlive/2014/texmf-dist/tex/latex/graphics/color.sty
INPUT c:/texlive/2014/texmf-dist/tex/latex/graphics/color.sty
INPUT c:/texlive/2014/texmf-dist/tex/latex/latexconfig/color.cfg
INPUT c:/texlive/2014/texmf-dist/tex/latex/latexconfig/color.cfg
INPUT c:/texlive/2014/texmf-dist/tex/latex/pdftex-def/pdftex.def
INPUT c:/texlive/2014/texmf-dist/tex/latex/pdftex-def/pdftex.def
INPUT c:/texlive/2014/texmf-dist/tex/generic/oberdiek/infwarerr.sty
INPUT c:/texlive/2014/texmf-dist/tex/generic/oberdiek/infwarerr.sty
INPUT c:/texlive/2014/texmf-dist/tex/generic/oberdiek/ltxcmds.sty
INPUT c:/texlive/2014/texmf-dist/tex/generic/oberdiek/ltxcmds.sty
INPUT c:/texlive/2014/texmf-dist/tex/latex/tools/multicol.sty
INPUT c:/texlive/2014/texmf-dist/tex/latex/tools/multicol.sty
INPUT c:/texlive/2014/texmf-dist/tex/latex/emptypage/emptypage.sty
INPUT c:/texlive/2014/texmf-dist/tex/latex/emptypage/emptypage.sty
INPUT c:/texlive/2014/texmf-dist/tex/latex/textcase/textcase.sty
INPUT c:/texlive/2014/texmf-dist/tex/latex/textcase/textcase.sty
INPUT c:/texlive/2014/texmf-dist/tex/latex/microtype/microtype.sty
INPUT c:/texlive/2014/texmf-dist/tex/latex/microtype/microtype.sty
INPUT c:/texlive/2014/texmf-dist/tex/latex/microtype/microtype-pdftex.def
INPUT c:/texlive/2014/texmf-dist/tex/latex/microtype/microtype-pdftex.def
INPUT c:/texlive/2014/texmf-dist/tex/latex/microtype/microtype.cfg
INPUT c:/texlive/2014/texmf-dist/tex/latex/microtype/microtype.cfg
INPUT c:/texlive/2014/texmf-dist/tex/latex/microtype/microtype.cfg
INPUT c:/texlive/2014/texmf-dist/tex/latex/base/fontenc.sty
INPUT c:/texlive/2014/texmf-dist/tex/latex/base/fontenc.sty
INPUT c:/texlive/2014/texmf-dist/tex/latex/greek-fontenc/lgrenc.def
INPUT c:/texlive/2014/texmf-dist/tex/latex/greek-fontenc/lgrenc.def
INPUT c:/texlive/2014/texmf-dist/tex/latex/greek-fontenc/greek-fontenc.def
INPUT c:/texlive/2014/texmf-dist/tex/latex/greek-fontenc/greek-fontenc.def
INPUT c:/texlive/2014/texmf-dist/tex/latex/base/t1enc.def
INPUT c:/texlive/2014/texmf-dist/tex/latex/base/t1enc.def
INPUT c:/texlive/2014/texmf-dist/fonts/map/fontname/texfonts.map
INPUT c:/texlive/2014/texmf-dist/fonts/tfm/jknappen/ec/ecrm1000.tfm
INPUT c:/texlive/2014/texmf-dist/tex/latex/substitutefont/substitutefont.sty
INPUT c:/texlive/2014/texmf-dist/tex/latex/substitutefont/substitutefont.sty
INPUT c:/texlive/2014/texmf-dist/tex/latex/psnfss/mathpazo.sty
INPUT c:/texlive/2014/texmf-dist/tex/latex/psnfss/mathpazo.sty
INPUT c:/texlive/2014/texmf-dist/tex/latex/bera/beramono.sty
INPUT c:/texlive/2014/texmf-dist/tex/latex/bera/beramono.sty
INPUT c:/texlive/2014/texmf-dist/tex/latex/crop/crop.sty
INPUT c:/texlive/2014/texmf-dist/tex/latex/crop/crop.sty
INPUT c:/texlive/2014/texmf-dist/tex/latex/graphics/color.sty
INPUT c:/texlive/2014/texmf-dist/tex/latex/graphics/graphics.sty
INPUT c:/texlive/2014/texmf-dist/tex/latex/graphics/graphics.sty
INPUT c:/texlive/2014/texmf-dist/tex/latex/graphics/graphics.sty
INPUT c:/texlive/2014/texmf-dist/tex/latex/graphics/trig.sty
INPUT c:/texlive/2014/texmf-dist/tex/latex/graphics/trig.sty
INPUT c:/texlive/2014/texmf-dist/tex/latex/latexconfig/graphics.cfg
INPUT c:/texlive/2014/texmf-dist/tex/latex/latexconfig/graphics.cfg
INPUT c:/texlive/2014/texmf-dist/tex/xelatex/xetexconfig/crop.cfg
INPUT c:/texlive/2014/texmf-dist/tex/xelatex/xetexconfig/crop.cfg
INPUT c:/texlive/2014/texmf-dist/tex/latex/titlesec/titlesec.sty
INPUT c:/texlive/2014/texmf-dist/tex/latex/titlesec/titlesec.sty
INPUT c:/texlive/2014/texmf-dist/tex/latex/titlesec/ttlkeys.def
INPUT c:/texlive/2014/texmf-dist/tex/latex/titlesec/ttlkeys.def
INPUT c:/texlive/2014/texmf-dist/tex/latex/fancyhdr/fancyhdr.sty
INPUT c:/texlive/2014/texmf-dist/tex/latex/fancyhdr/fancyhdr.sty
INPUT c:/texlive/2014/texmf-dist/tex/latex/titlesec/titletoc.sty
INPUT c:/texlive/2014/texmf-dist/tex/latex/titlesec/titletoc.sty
INPUT gensuftesi.aux
INPUT gensuftesi.aux
OUTPUT gensuftesi.aux
INPUT c:/texlive/2014/texmf-dist/tex/latex/cbfonts-fd/lgrcmr.fd
INPUT c:/texlive/2014/texmf-dist/tex/latex/cbfonts-fd/lgrcmr.fd
INPUT c:/texlive/2014/texmf-dist/tex/latex/psnfss/t1pplj.fd
INPUT c:/texlive/2014/texmf-dist/tex/latex/psnfss/t1pplj.fd
INPUT c:/texlive/2014/texmf-dist/fonts/tfm/adobe/palatino/pplr9d.tfm
INPUT c:/texlive/2014/texmf-dist/tex/context/base/supp-pdf.mkii
INPUT c:/texlive/2014/texmf-dist/tex/context/base/supp-pdf.mkii
INPUT c:/texlive/2014/texmf-dist/tex/latex/microtype/mt-ppl.cfg
INPUT c:/texlive/2014/texmf-dist/tex/latex/microtype/mt-ppl.cfg
INPUT c:/texlive/2014/texmf-dist/tex/generic/oberdiek/pdftexcmds.sty
INPUT c:/texlive/2014/texmf-dist/tex/generic/oberdiek/pdftexcmds.sty
INPUT c:/texlive/2014/texmf-dist/tex/generic/oberdiek/ifluatex.sty
INPUT c:/texlive/2014/texmf-dist/tex/generic/oberdiek/ifluatex.sty
INPUT c:/texlive/2014/texmf-dist/tex/latex/oberdiek/epstopdf-base.sty
INPUT c:/texlive/2014/texmf-dist/tex/latex/oberdiek/epstopdf-base.sty
INPUT c:/texlive/2014/texmf-dist/tex/latex/oberdiek/grfext.sty
INPUT c:/texlive/2014/texmf-dist/tex/latex/oberdiek/grfext.sty
INPUT c:/texlive/2014/texmf-dist/tex/generic/oberdiek/kvdefinekeys.sty
INPUT c:/texlive/2014/texmf-dist/tex/generic/oberdiek/kvdefinekeys.sty
INPUT c:/texlive/2014/texmf-dist/tex/latex/oberdiek/kvoptions.sty
INPUT c:/texlive/2014/texmf-dist/tex/latex/oberdiek/kvoptions.sty
INPUT c:/texlive/2014/texmf-dist/tex/generic/oberdiek/kvsetkeys.sty
INPUT c:/texlive/2014/texmf-dist/tex/generic/oberdiek/kvsetkeys.sty
INPUT c:/texlive/2014/texmf-dist/tex/generic/oberdiek/etexcmds.sty
INPUT c:/texlive/2014/texmf-dist/tex/generic/oberdiek/etexcmds.sty
INPUT c:/texlive/2014/texmf-dist/tex/latex/latexconfig/epstopdf-sys.cfg
INPUT c:/texlive/2014/texmf-dist/tex/latex/latexconfig/epstopdf-sys.cfg
INPUT c:/texlive/2014/texmf-dist/tex/latex/fixltxhyph/fixltxhyph.sty
INPUT c:/texlive/2014/texmf-dist/tex/latex/fixltxhyph/fixltxhyph.sty
INPUT c:/texlive/2014/texmf-dist/fonts/tfm/adobe/palatino/pplr9d.tfm
OUTPUT gensuftesi.pdf
INPUT c:/texlive/2014/texmf-var/fonts/map/pdftex/updmap/pdftex.map
INPUT c:/texlive/2014/texmf-dist/fonts/vf/adobe/palatino/pplr9d.vf
INPUT c:/texlive/2014/texmf-dist/fonts/tfm/adobe/palatino/pplr8r.tfm
INPUT c:/texlive/2014/texmf-dist/fonts/tfm/public/mathpazo/fplmr.tfm
INPUT c:/texlive/2014/texmf-dist/fonts/tfm/adobe/palatino/pplrc8r.tfm
INPUT c:/texlive/2014/texmf-dist/fonts/vf/adobe/palatino/pplr9d.vf
INPUT c:/texlive/2014/texmf-dist/fonts/tfm/adobe/palatino/pplr8r.tfm
INPUT c:/texlive/2014/texmf-dist/fonts/tfm/public/mathpazo/fplmr.tfm
INPUT c:/texlive/2014/texmf-dist/fonts/tfm/adobe/palatino/pplrc8r.tfm
INPUT c:/texlive/2014/texmf-dist/fonts/tfm/adobe/palatino/pplr9d.tfm
INPUT c:/texlive/2014/texmf-dist/fonts/vf/adobe/palatino/pplr9d.vf
INPUT c:/texlive/2014/texmf-dist/fonts/tfm/adobe/palatino/pplr8r.tfm
INPUT c:/texlive/2014/texmf-dist/fonts/tfm/public/mathpazo/fplmr.tfm
INPUT c:/texlive/2014/texmf-dist/fonts/tfm/adobe/palatino/pplrc8r.tfm
INPUT gensuftesi.aux
OUTPUT gensuftesi.dep
INPUT c:/texlive/2014/texmf-dist/fonts/enc/dvips/base/8r.enc
INPUT c:/texlive/2014/texmf-dist/fonts/type1/public/fpl/fplrc8a.pfb
INPUT c:/texlive/2014/texmf-dist/fonts/type1/public/amsfonts/latxfont/lcircle1.pfb
INPUT c:/texlive/2014/texmf-dist/fonts/type1/urw/palatino/uplr8a.pfb
