PWD C:/tex/geneatex/test
INPUT c:/texlive/2014/texmf.cnf
INPUT c:/texlive/2014/texmf-dist/web2c/texmf.cnf
INPUT c:/texlive/2014/texmf-var/web2c/pdftex/pdflatex.fmt
INPUT c:/tex/geneatex/test/Mamstext.tex
OUTPUT Mamstext.log
INPUT c:/texlive/2014/texmf-dist/tex/latex/snapshot/snapshot.sty
INPUT c:/texlive/2014/texmf-dist/tex/latex/snapshot/snapshot.sty
INPUT c:/texlive/2014/texmf-dist/tex/latex/base/minimal.cls
INPUT c:/texlive/2014/texmf-dist/tex/latex/base/minimal.cls
INPUT c:/texlive/2014/texmf-dist/tex/latex/amsmath/amstext.sty
INPUT c:/texlive/2014/texmf-dist/tex/latex/amsmath/amstext.sty
INPUT c:/texlive/2014/texmf-dist/tex/latex/amsmath/amsgen.sty
INPUT c:/texlive/2014/texmf-dist/tex/latex/amsmath/amsgen.sty
INPUT Mamstext.aux
INPUT Mamstext.aux
OUTPUT Mamstext.aux
OUTPUT Mamstext.pdf
INPUT c:/texlive/2014/texmf-var/fonts/map/pdftex/updmap/pdftex.map
INPUT Mamstext.aux
OUTPUT Mamstext.dep
INPUT c:/texlive/2014/texmf-dist/fonts/type1/public/amsfonts/cm/cmr10.pfb
