PWD C:/tex/geneatex/test
INPUT c:/texlive/2014/texmf.cnf
INPUT c:/texlive/2014/texmf-dist/web2c/texmf.cnf
INPUT c:/texlive/2014/texmf-var/web2c/pdftex/pdflatex.fmt
INPUT c:/tex/geneatex/test/Mbabel.tex
OUTPUT Mbabel.log
INPUT c:/texlive/2014/texmf-dist/tex/latex/snapshot/snapshot.sty
INPUT c:/texlive/2014/texmf-dist/tex/latex/snapshot/snapshot.sty
INPUT c:/texlive/2014/texmf-dist/tex/latex/base/minimal.cls
INPUT c:/texlive/2014/texmf-dist/tex/latex/base/minimal.cls
INPUT c:/texlive/2014/texmf-dist/tex/generic/babel/babel.sty
INPUT c:/texlive/2014/texmf-dist/tex/generic/babel/babel.sty
INPUT c:/texlive/2014/texmf-dist/tex/generic/babel-italian/italian.ldf
INPUT c:/texlive/2014/texmf-dist/tex/generic/babel-italian/italian.ldf
INPUT c:/texlive/2014/texmf-dist/tex/generic/babel/babel.def
INPUT c:/texlive/2014/texmf-dist/tex/latex/etoolbox/etoolbox.sty
INPUT c:/texlive/2014/texmf-dist/tex/latex/etoolbox/etoolbox.sty
INPUT c:/texlive/2014/texmf-dist/tex/latex/etex-pkg/etex.sty
INPUT c:/texlive/2014/texmf-dist/tex/latex/etex-pkg/etex.sty
INPUT Mbabel.aux
INPUT Mbabel.aux
OUTPUT Mbabel.aux
OUTPUT Mbabel.pdf
INPUT c:/texlive/2014/texmf-var/fonts/map/pdftex/updmap/pdftex.map
INPUT Mbabel.aux
OUTPUT Mbabel.dep
INPUT c:/texlive/2014/texmf-dist/fonts/type1/public/amsfonts/cm/cmr10.pfb
