PWD C:/tex/geneatex/test
INPUT c:/texlive/2014/texmf.cnf
INPUT c:/texlive/2014/texmf-dist/web2c/texmf.cnf
INPUT c:/texlive/2014/texmf-var/web2c/pdftex/pdflatex.fmt
INPUT c:/tex/geneatex/test/Mcrop.tex
OUTPUT Mcrop.log
INPUT c:/texlive/2014/texmf-dist/tex/latex/snapshot/snapshot.sty
INPUT c:/texlive/2014/texmf-dist/tex/latex/snapshot/snapshot.sty
INPUT c:/texlive/2014/texmf-dist/tex/latex/base/minimal.cls
INPUT c:/texlive/2014/texmf-dist/tex/latex/base/minimal.cls
INPUT c:/texlive/2014/texmf-dist/tex/latex/crop/crop.sty
INPUT c:/texlive/2014/texmf-dist/tex/latex/crop/crop.sty
INPUT c:/texlive/2014/texmf-dist/tex/latex/graphics/color.sty
INPUT c:/texlive/2014/texmf-dist/tex/latex/graphics/color.sty
INPUT c:/texlive/2014/texmf-dist/tex/latex/graphics/color.sty
INPUT c:/texlive/2014/texmf-dist/tex/latex/latexconfig/color.cfg
INPUT c:/texlive/2014/texmf-dist/tex/latex/latexconfig/color.cfg
INPUT c:/texlive/2014/texmf-dist/tex/latex/pdftex-def/pdftex.def
INPUT c:/texlive/2014/texmf-dist/tex/latex/pdftex-def/pdftex.def
INPUT c:/texlive/2014/texmf-dist/tex/generic/oberdiek/infwarerr.sty
INPUT c:/texlive/2014/texmf-dist/tex/generic/oberdiek/infwarerr.sty
INPUT c:/texlive/2014/texmf-dist/tex/generic/oberdiek/ltxcmds.sty
INPUT c:/texlive/2014/texmf-dist/tex/generic/oberdiek/ltxcmds.sty
INPUT c:/texlive/2014/texmf-dist/tex/latex/graphics/graphics.sty
INPUT c:/texlive/2014/texmf-dist/tex/latex/graphics/graphics.sty
INPUT c:/texlive/2014/texmf-dist/tex/latex/graphics/graphics.sty
INPUT c:/texlive/2014/texmf-dist/tex/latex/graphics/trig.sty
INPUT c:/texlive/2014/texmf-dist/tex/latex/graphics/trig.sty
INPUT c:/texlive/2014/texmf-dist/tex/latex/latexconfig/graphics.cfg
INPUT c:/texlive/2014/texmf-dist/tex/latex/latexconfig/graphics.cfg
INPUT c:/texlive/2014/texmf-dist/tex/xelatex/xetexconfig/crop.cfg
INPUT c:/texlive/2014/texmf-dist/tex/xelatex/xetexconfig/crop.cfg
INPUT Mcrop.aux
INPUT Mcrop.aux
OUTPUT Mcrop.aux
INPUT c:/texlive/2014/texmf-dist/tex/context/base/supp-pdf.mkii
INPUT c:/texlive/2014/texmf-dist/tex/context/base/supp-pdf.mkii
INPUT c:/texlive/2014/texmf-dist/tex/generic/oberdiek/pdftexcmds.sty
INPUT c:/texlive/2014/texmf-dist/tex/generic/oberdiek/pdftexcmds.sty
INPUT c:/texlive/2014/texmf-dist/tex/generic/oberdiek/ifluatex.sty
INPUT c:/texlive/2014/texmf-dist/tex/generic/oberdiek/ifluatex.sty
INPUT c:/texlive/2014/texmf-dist/tex/generic/oberdiek/ifpdf.sty
INPUT c:/texlive/2014/texmf-dist/tex/generic/oberdiek/ifpdf.sty
INPUT c:/texlive/2014/texmf-dist/tex/latex/oberdiek/epstopdf-base.sty
INPUT c:/texlive/2014/texmf-dist/tex/latex/oberdiek/epstopdf-base.sty
INPUT c:/texlive/2014/texmf-dist/tex/latex/oberdiek/grfext.sty
INPUT c:/texlive/2014/texmf-dist/tex/latex/oberdiek/grfext.sty
INPUT c:/texlive/2014/texmf-dist/tex/generic/oberdiek/kvdefinekeys.sty
INPUT c:/texlive/2014/texmf-dist/tex/generic/oberdiek/kvdefinekeys.sty
INPUT c:/texlive/2014/texmf-dist/tex/latex/oberdiek/kvoptions.sty
INPUT c:/texlive/2014/texmf-dist/tex/latex/oberdiek/kvoptions.sty
INPUT c:/texlive/2014/texmf-dist/tex/latex/graphics/keyval.sty
INPUT c:/texlive/2014/texmf-dist/tex/latex/graphics/keyval.sty
INPUT c:/texlive/2014/texmf-dist/tex/generic/oberdiek/kvsetkeys.sty
INPUT c:/texlive/2014/texmf-dist/tex/generic/oberdiek/kvsetkeys.sty
INPUT c:/texlive/2014/texmf-dist/tex/generic/oberdiek/etexcmds.sty
INPUT c:/texlive/2014/texmf-dist/tex/generic/oberdiek/etexcmds.sty
INPUT c:/texlive/2014/texmf-dist/tex/latex/latexconfig/epstopdf-sys.cfg
INPUT c:/texlive/2014/texmf-dist/tex/latex/latexconfig/epstopdf-sys.cfg
OUTPUT Mcrop.pdf
INPUT c:/texlive/2014/texmf-var/fonts/map/pdftex/updmap/pdftex.map
INPUT Mcrop.aux
OUTPUT Mcrop.dep
INPUT c:/texlive/2014/texmf-dist/fonts/type1/public/amsfonts/cm/cmr10.pfb
