PWD C:/tex/geneatex/test
INPUT c:/texlive/2014/texmf.cnf
INPUT c:/texlive/2014/texmf-dist/web2c/texmf.cnf
INPUT c:/texlive/2014/texmf-var/web2c/pdftex/pdflatex.fmt
INPUT c:/tex/geneatex/test/Mifpdf.tex
OUTPUT Mifpdf.log
INPUT c:/texlive/2014/texmf-dist/tex/latex/snapshot/snapshot.sty
INPUT c:/texlive/2014/texmf-dist/tex/latex/snapshot/snapshot.sty
INPUT c:/texlive/2014/texmf-dist/tex/latex/base/minimal.cls
INPUT c:/texlive/2014/texmf-dist/tex/latex/base/minimal.cls
INPUT c:/texlive/2014/texmf-dist/tex/generic/oberdiek/ifpdf.sty
INPUT c:/texlive/2014/texmf-dist/tex/generic/oberdiek/ifpdf.sty
INPUT Mifpdf.aux
INPUT Mifpdf.aux
OUTPUT Mifpdf.aux
OUTPUT Mifpdf.pdf
INPUT c:/texlive/2014/texmf-var/fonts/map/pdftex/updmap/pdftex.map
INPUT Mifpdf.aux
OUTPUT Mifpdf.dep
INPUT c:/texlive/2014/texmf-dist/fonts/type1/public/amsfonts/cm/cmr10.pfb
