PWD C:/tex/geneatex/test
INPUT c:/texlive/2014/texmf.cnf
INPUT c:/texlive/2014/texmf-dist/web2c/texmf.cnf
INPUT c:/texlive/2014/texmf-var/web2c/pdftex/pdflatex.fmt
INPUT c:/tex/geneatex/test/Minputenc1.tex
OUTPUT Minputenc1.log
INPUT c:/texlive/2014/texmf-dist/tex/latex/snapshot/snapshot.sty
INPUT c:/texlive/2014/texmf-dist/tex/latex/snapshot/snapshot.sty
INPUT c:/texlive/2014/texmf-dist/tex/latex/base/minimal.cls
INPUT c:/texlive/2014/texmf-dist/tex/latex/base/minimal.cls
INPUT c:/texlive/2014/texmf-dist/tex/latex/base/inputenc.sty
INPUT c:/texlive/2014/texmf-dist/tex/latex/base/inputenc.sty
INPUT c:/texlive/2014/texmf-dist/tex/latex/base/utf8.def
INPUT c:/texlive/2014/texmf-dist/tex/latex/base/utf8.def
INPUT c:/texlive/2014/texmf-dist/tex/latex/base/t1enc.dfu
INPUT c:/texlive/2014/texmf-dist/tex/latex/base/t1enc.dfu
INPUT c:/texlive/2014/texmf-dist/tex/latex/base/ot1enc.dfu
INPUT c:/texlive/2014/texmf-dist/tex/latex/base/ot1enc.dfu
INPUT c:/texlive/2014/texmf-dist/tex/latex/base/omsenc.dfu
INPUT c:/texlive/2014/texmf-dist/tex/latex/base/omsenc.dfu
INPUT Minputenc1.aux
INPUT Minputenc1.aux
OUTPUT Minputenc1.aux
OUTPUT Minputenc1.pdf
INPUT c:/texlive/2014/texmf-var/fonts/map/pdftex/updmap/pdftex.map
INPUT Minputenc1.aux
OUTPUT Minputenc1.dep
INPUT c:/texlive/2014/texmf-dist/fonts/type1/public/amsfonts/cm/cmr10.pfb
