PWD C:/tex/geneatex/test
INPUT c:/texlive/2014/texmf.cnf
INPUT c:/texlive/2014/texmf-dist/web2c/texmf.cnf
INPUT c:/texlive/2014/texmf-var/web2c/pdftex/pdflatex.fmt
INPUT c:/tex/geneatex/test/Mmathpazo.tex
OUTPUT Mmathpazo.log
INPUT c:/texlive/2014/texmf-dist/tex/latex/snapshot/snapshot.sty
INPUT c:/texlive/2014/texmf-dist/tex/latex/snapshot/snapshot.sty
INPUT c:/texlive/2014/texmf-dist/tex/latex/base/article.cls
INPUT c:/texlive/2014/texmf-dist/tex/latex/base/article.cls
INPUT c:/texlive/2014/texmf-dist/tex/latex/base/size10.clo
INPUT c:/texlive/2014/texmf-dist/tex/latex/base/size10.clo
INPUT c:/texlive/2014/texmf-dist/tex/latex/psnfss/mathpazo.sty
INPUT c:/texlive/2014/texmf-dist/tex/latex/psnfss/mathpazo.sty
INPUT Mmathpazo.aux
INPUT Mmathpazo.aux
OUTPUT Mmathpazo.aux
INPUT c:/texlive/2014/texmf-dist/tex/latex/psnfss/ot1ppl.fd
INPUT c:/texlive/2014/texmf-dist/tex/latex/psnfss/ot1ppl.fd
INPUT c:/texlive/2014/texmf-dist/fonts/map/fontname/texfonts.map
INPUT c:/texlive/2014/texmf-dist/fonts/tfm/adobe/palatino/pplr7t.tfm
OUTPUT Mmathpazo.pdf
INPUT c:/texlive/2014/texmf-dist/fonts/vf/adobe/palatino/pplr7t.vf
INPUT c:/texlive/2014/texmf-dist/fonts/tfm/adobe/palatino/pplr8r.tfm
INPUT c:/texlive/2014/texmf-var/fonts/map/pdftex/updmap/pdftex.map
INPUT Mmathpazo.aux
OUTPUT Mmathpazo.dep
INPUT c:/texlive/2014/texmf-dist/fonts/enc/dvips/base/8r.enc
INPUT c:/texlive/2014/texmf-dist/fonts/type1/urw/palatino/uplr8a.pfb
