PWD C:/tex/geneatex/test
INPUT c:/texlive/2014/texmf.cnf
INPUT c:/texlive/2014/texmf-dist/web2c/texmf.cnf
INPUT c:/texlive/2014/texmf-var/web2c/pdftex/pdflatex.fmt
INPUT c:/tex/geneatex/test/Mtitlesec.tex
OUTPUT Mtitlesec.log
INPUT c:/texlive/2014/texmf-dist/tex/latex/snapshot/snapshot.sty
INPUT c:/texlive/2014/texmf-dist/tex/latex/snapshot/snapshot.sty
INPUT c:/texlive/2014/texmf-dist/tex/latex/base/book.cls
INPUT c:/texlive/2014/texmf-dist/tex/latex/base/book.cls
INPUT c:/texlive/2014/texmf-dist/tex/latex/base/bk10.clo
INPUT c:/texlive/2014/texmf-dist/tex/latex/base/bk10.clo
INPUT c:/texlive/2014/texmf-dist/tex/latex/titlesec/titlesec.sty
INPUT c:/texlive/2014/texmf-dist/tex/latex/titlesec/titlesec.sty
INPUT Mtitlesec.aux
INPUT Mtitlesec.aux
OUTPUT Mtitlesec.aux
INPUT c:/texlive/2014/texmf-dist/fonts/map/fontname/texfonts.map
INPUT c:/texlive/2014/texmf-dist/fonts/tfm/public/cm/cmss10.tfm
INPUT c:/texlive/2014/texmf-dist/fonts/tfm/public/cm/cmssi10.tfm
INPUT c:/texlive/2014/texmf-dist/fonts/tfm/public/cm/cmssi17.tfm
INPUT c:/texlive/2014/texmf-dist/fonts/tfm/public/cm/cmssi17.tfm
OUTPUT Mtitlesec.pdf
INPUT c:/texlive/2014/texmf-var/fonts/map/pdftex/updmap/pdftex.map
INPUT Mtitlesec.aux
OUTPUT Mtitlesec.dep
INPUT c:/texlive/2014/texmf-dist/fonts/type1/public/amsfonts/cm/cmr10.pfb
INPUT c:/texlive/2014/texmf-dist/fonts/type1/public/amsfonts/cm/cmssi17.pfb
